\relax 
\@writefile{toc}{\contentsline {section}{\numberline {1}Comments}{1}}
\@writefile{toc}{\contentsline {section}{\numberline {2}End of Statement in Python}{1}}
\@writefile{toc}{\contentsline {section}{\numberline {3}Print}{1}}
\@writefile{toc}{\contentsline {section}{\numberline {4}Basic Arithmatic}{1}}
\@writefile{toc}{\contentsline {section}{\numberline {5}Declaring Variables}{1}}
\@writefile{toc}{\contentsline {section}{\numberline {6}Index Element}{2}}
\@writefile{toc}{\contentsline {section}{\numberline {7}Selecting Index Elements}{2}}
\@writefile{toc}{\contentsline {section}{\numberline {8}Concatenation}{2}}
\@writefile{toc}{\contentsline {section}{\numberline {9}String Manipulation}{2}}
\@writefile{toc}{\contentsline {section}{\numberline {10}Print Formatting}{2}}
\@writefile{toc}{\contentsline {section}{\numberline {11}List Manipulation}{3}}
\@writefile{toc}{\contentsline {section}{\numberline {12}Dictionary}{3}}
\@writefile{toc}{\contentsline {section}{\numberline {13}Tuples}{3}}
\@writefile{toc}{\contentsline {section}{\numberline {14}Function}{4}}
\@writefile{toc}{\contentsline {section}{\numberline {15}if elseif Statement}{4}}
\@writefile{toc}{\contentsline {section}{\numberline {16}while Loop}{4}}
\@writefile{toc}{\contentsline {section}{\numberline {17}Importing Libraries}{4}}
\@writefile{toc}{\contentsline {section}{\numberline {18}Breaking Out of Loops}{4}}
\@writefile{toc}{\contentsline {section}{\numberline {19}continue}{4}}
\@writefile{toc}{\contentsline {section}{\numberline {20}Undefined Variable}{5}}
\@writefile{toc}{\contentsline {section}{\numberline {21}Classes}{5}}
